{
    "app-id" : "page.codeberg.foreverxml.Random",
    "runtime" : "org.gnome.Platform",
    "runtime-version" : 42,
    "sdk" : "org.gnome.Sdk",
    "command" : "randomgtk",
    "finish-args" : [
        "--share=ipc",
        "--socket=fallback-x11",
        "--socket=wayland",
        "--device=dri"
    ],
    "cleanup" : [
        "/include",
        "/lib/pkgconfig",
        "/man",
        "/share/doc",
        "/share/gtk-doc",
        "/share/man",
        "/share/pkgconfig",
        "/share/vala",
        "*.la",
        "*.a"
    ],
    "modules" : [
        {
            "name" : "random",
            "builddir" : true,
            "buildsystem" : "meson",
            "sources" : [
                {
                    "type" : "dir",
                    "path" : "."
                }
            ]
        }
    ]
}
